rtl/gtkwave/tb_aes256_key_expansion.vcd
$date
	Tue Nov  4 01:20:41 2025
$end
$version
	Icarus Verilog
$end
$timescale
	1ps
$end
$scope module tb_aes256_key_expansion $end
$var wire 1 ! done $end
$var reg 1 " clk $end
$var reg 256 # master_key [255:0] $end
$var reg 1 $ rst_n $end
$var reg 1 % start $end
$var integer 32 & errors [31:0] $end
$var integer 32 ' i [31:0] $end
$var integer 32 ( j [31:0] $end
$var integer 32 ) test_count [31:0] $end
$scope function compare_round_key $end
$var reg 128 * expected [127:0] $end
$var integer 32 + byte_idx [31:0] $end
$var integer 32 , round_num [31:0] $end
$upscope $end
$scope function get_byte $end
$var reg 128 - data [127:0] $end
$var integer 32 . byte_index [31:0] $end
$upscope $end
$scope module dut $end
$var wire 1 " clk $end
$var wire 256 / key_i [255:0] $end
$var wire 1 $ rst_n $end
$var wire 1 % start_i $end
$var parameter 2 0 DONE $end
$var parameter 2 1 EXPAND $end
$var parameter 2 2 IDLE $end
$var reg 1 ! done_o $end
$var reg 2 3 state [1:0] $end
$var reg 6 4 word_idx [5:0] $end
$var integer 32 5 i [31:0] $end
$scope function rot_word $end
$var reg 32 6 word_in [31:0] $end
$upscope $end
$scope function sub_word $end
$var reg 32 7 word_in [31:0] $end
$upscope $end
$upscope $end
$scope task display_all_round_keys $end
$var reg 256 8 label [255:0] $end
$var integer 32 9 round [31:0] $end
$upscope $end
$scope task display_round_key $end
$var reg 256 : label [255:0] $end
$var integer 32 ; c [31:0] $end
$var integer 32 < idx [31:0] $end
$var integer 32 = r [31:0] $end
$var integer 32 > round_num [31:0] $end
$upscope $end
$scope task reset_dut $end
$upscope $end
$scope task run_key_expansion $end
$var reg 256 ? key [255:0] $end
$var integer 32 @ timeout_counter [31:0] $end
$upscope $end
$scope task test_avalanche_effect $end
$var reg 256 A key1 [255:0] $end
$var reg 256 B key2 [255:0] $end
$var integer 32 C bit_idx [31:0] $end
$var integer 32 D diff_bits [31:0] $end
$var integer 32 E round [31:0] $end
$var integer 32 F total_diff_bits [31:0] $end
$upscope $end
$scope task test_fips197_appendix_a3 $end
$var integer 32 G all_pass [31:0] $end
$var integer 32 H round [31:0] $end
$upscope $end
$scope task test_fips197_appendix_c3 $end
$var integer 32 I all_pass [31:0] $end
$var integer 32 J round [31:0] $end
$upscope $end
$scope task test_ones_key $end
$var integer 32 K all_unique [31:0] $end
$upscope $end
$scope task test_random_key $end
$var reg 256 L test_key [255:0] $end
$var reg 256 M test_name [255:0] $end
$var integer 32 N all_unique [31:0] $end
$upscope $end
$scope task test_timing $end
$var integer 32 O duration [31:0] $end
$var integer 32 P end_time [31:0] $end
$var integer 32 Q start_time [31:0] $end
$upscope $end
$scope task test_zero_key $end
$var integer 32 R first_key_zero [31:0] $end
$var integer 32 S other_keys_nonzero [31:0] $end
$var integer 32 T round [31:0] $end
$upscope $end
$upscope $end
$enddefinitions $end
$comment Show the parameter values. $end
$dumpall
b0 2
b1 1
b10 0
$end
#0
$dumpvars
bx T
bx S
bx R
bx Q
bx P
bx O
bx N
bx M
bx L
bx K
bx J
bx I
bx H
bx G
bx F
bx E
bx D
bx C
bx B
bx A
bx @
bx ?
bx >
bx =
bx <
bx ;
bx :
bx 9
bx 8
bx 7
bx 6
b1111 5
b0 4
b0 3
b0 /
bx .
bx -
bx ,
bx +
bx *
b0 )
bx (
bx '
b0 &
0%
0$
b0 #
0"
0!
$end
#5000
b1111 5
1"
#10000
0"
#15000
1$
1"
#20000
0"
#25000
b1 3
b1000 4
1%
b1000000100000001100000100000001010000011000000111000010000000100100001010000010110000110000001101000011100000111100010000000100010001001000010011000101000001010100010110000101110001100000011001000110100001101100011100000111010001111000011111 ?
b1000000100000001100000100000001010000011000000111000010000000100100001010000010110000110000001101000011100000111100010000000100010001001000010011000101000001010100010110000101110001100000011001000110100001101100011100000111010001111000011111 #
b1000000100000001100000100000001010000011000000111000010000000100100001010000010110000110000001101000011100000111100010000000100010001001000010011000101000001010100010110000101110001100000011001000110100001101100011100000111010001111000011111 /
b1 )
1"
#30000
0"
#35000
b1001 4
b11101000111100001111100011100 7
b11100000111010001111000011111 6
b0 @
0%
1"
#40000
0"
#45000
b1010 4
b1 @
1"
#50000
0"
#55000
b1011 4
b10 @
1"
#60000
0"
#65000
b1100 4
b11 @
1"
#70000
0"
#75000
b1101 4
b10100101011100101100000010011100 7
b100 @
1"
#80000
0"
#85000
b1110 4
b101 @
1"
#90000
0"
#95000
b1111 4
b110 @
1"
#100000
0"
#105000
b10000 4
b111 @
1"
#110000
0"
#115000
b10001 4
b1000000101110101101111000000110 7
b110010000001011101011011110 6
b1000 @
1"
#120000
0"
#125000
b10010 4
b1001 @
1"
#130000
0"
#135000
b10011 4
b1010 @
1"
#140000
0"
#145000
b10100 4
b1011 @
1"
#150000
0"
#155000
b10101 4
b11111111000001010101100111 7
b1100 @
1"
#160000
0"
#165000
b10110 4
b1101 @
1"
#170000
0"
#175000
b10111 4
b1110 @
1"
#180000
0"
#185000
b11000 4
b1111 @
1"
#190000
0"
#195000
b11001 4
b10111000010100011000110101110011 7
b1110011101110000101000110001101 6
b10000 @
1"
#200000
0"
#205000
b11010 4
b10001 @
1"
#210000
0"
#215000
b11011 4
b10010 @
1"
#220000
0"
#225000
b11100 4
b10011 @
1"
#230000
0"
#235000
b11101 4
b1101100110101010101100110001011 7
b10100 @
1"
#240000
0"
#245000
b11110 4
b10101 @
1"
#250000
0"
#255000
b11111 4
b10110 @
1"
#260000
0"
#265000
b100000 4
b10111 @
1"
#270000
0"
#275000
b100001 4
b111110011110011100101010100 7
b1010100000001111100111100111001 6
b11000 @
1"
#280000
0"
#285000
b100010 4
b11001 @
1"
#290000
0"
#295000
b100011 4
b11010 @
1"
#300000
0"
#305000
b100100 4
b11011 @
1"
#310000
0"
#315000
b100101 4
b11000001100001110001110000101111 7
b11100 @
1"
#320000
0"
#325000
b100110 4
b11101 @
1"
#330000
0"
#335000
b100111 4
b11110 @
1"
#340000
0"
#345000
b101000 4
b11111 @
1"
#350000
0"
#355000
b101001 4
b1010100000100000101001100100 7
b1100100000010101000001000001010 6
b100000 @
1"
#360000
0"
#365000
b101010 4
b100001 @
1"
#370000
0"
#375000
b101011 4
b100010 @
1"
#380000
0"
#385000
b101100 4
b100011 @
1"
#390000
0"
#395000
b101101 4
b11010010011000011010011111011111 7
b100100 @
1"
#400000
0"
#405000
b101110 4
b100101 @
1"
#410000
0"
#415000
b101111 4
b100110 @
1"
#420000
0"
#425000
b110000 4
b100111 @
1"
#430000
0"
#435000
b110001 4
b10101111111001100100000010110011 7
b10110011101011111110011001000000 6
b101000 @
1"
#440000
0"
#445000
b110010 4
b101001 @
1"
#450000
0"
#455000
b110011 4
b101010 @
1"
#460000
0"
#465000
b110100 4
b101011 @
1"
#470000
0"
#475000
b110101 4
b1011010011100100001110000001010 7
b101100 @
1"
#480000
0"
#485000
b110110 4
b101101 @
1"
#490000
0"
#495000
b110111 4
b101110 @
1"
#500000
0"
#505000
b111000 4
b101111 @
1"
#510000
0"
#515000
b111001 4
b11111000110011011110101011001101 7
b11001101111110001100110111101010 6
b110000 @
1"
#520000
0"
#525000
b111010 4
b110001 @
1"
#530000
0"
#535000
b111011 4
b110010 @
1"
#540000
0"
#545000
b111100 4
b110011 @
1"
#550000
0"
#555000
b10 3
b1111 5
b110100 @
1"
#560000
0"
#565000
b0 3
1!
b110101 @
1"
#570000
0"
#575000
b0 4
0!
b1111 5
b0 #
b0 /
0$
b1110 ,
b100100111111000111100111001100101111110000100101111001111010010011011100011010110000100011110001101101011010001101111000110110 *
b1111 H
b1 G
b110110 @
1"
#580000
0"
#585000
b1111 5
1"
#590000
0"
#595000
1$
1"
#600000
0"
#605000
b1 3
b1000 4
1%
b1000000100000001100000100000001010000011000000111000010000000100100001010000010110000110000001101000011100000111100010000000100010001001000010011000101000001010100010110000101110001100000011001000110100001101100011100000111010001111000011111 #
b1000000100000001100000100000001010000011000000111000010000000100100001010000010110000110000001101000011100000111100010000000100010001001000010011000101000001010100010110000101110001100000011001000110100001101100011100000111010001111000011111 /
b10 )
1"
#610000
0"
#615000
b1001 4
b11101000111100001111100011100 7
b11100000111010001111000011111 6
b0 @
0%
1"
#620000
0"
#625000
b1010 4
b1 @
1"
#630000
0"
#635000
b1011 4
b10 @
1"
#640000
0"
#645000
b1100 4
b11 @
1"
#650000
0"
#655000
b1101 4
b10100101011100101100000010011100 7
b100 @
1"
#660000
0"
#665000
b1110 4
b101 @
1"
#670000
0"
#675000
b1111 4
b110 @
1"
#680000
0"
#685000
b10000 4
b111 @
1"
#690000
0"
#695000
b10001 4
b1000000101110101101111000000110 7
b110010000001011101011011110 6
b1000 @
1"
#700000
0"
#705000
b10010 4
b1001 @
1"
#710000
0"
#715000
b10011 4
b1010 @
1"
#720000
0"
#725000
b10100 4
b1011 @
1"
#730000
0"
#735000
b10101 4
b11111111000001010101100111 7
b1100 @
1"
#740000
0"
#745000
b10110 4
b1101 @
1"
#750000
0"
#755000
b10111 4
b1110 @
1"
#760000
0"
#765000
b11000 4
b1111 @
1"
#770000
0"
#775000
b11001 4
b10111000010100011000110101110011 7
b1110011101110000101000110001101 6
b10000 @
1"
#780000
0"
#785000
b11010 4
b10001 @
1"
#790000
0"
#795000
b11011 4
b10010 @
1"
#800000
0"
#805000
b11100 4
b10011 @
1"
#810000
0"
#815000
b11101 4
b1101100110101010101100110001011 7
b10100 @
1"
#820000
0"
#825000
b11110 4
b10101 @
1"
#830000
0"
#835000
b11111 4
b10110 @
1"
#840000
0"
#845000
b100000 4
b10111 @
1"
#850000
0"
#855000
b100001 4
b111110011110011100101010100 7
b1010100000001111100111100111001 6
b11000 @
1"
#860000
0"
#865000
b100010 4
b11001 @
1"
#870000
0"
#875000
b100011 4
b11010 @
1"
#880000
0"
#885000
b100100 4
b11011 @
1"
#890000
0"
#895000
b100101 4
b11000001100001110001110000101111 7
b11100 @
1"
#900000
0"
#905000
b100110 4
b11101 @
1"
#910000
0"
#915000
b100111 4
b11110 @
1"
#920000
0"
#925000
b101000 4
b11111 @
1"
#930000
0"
#935000
b101001 4
b1010100000100000101001100100 7
b1100100000010101000001000001010 6
b100000 @
1"
#940000
0"
#945000
b101010 4
b100001 @
1"
#950000
0"
#955000
b101011 4
b100010 @
1"
#960000
0"
#965000
b101100 4
b100011 @
1"
#970000
0"
#975000
b101101 4
b11010010011000011010011111011111 7
b100100 @
1"
#980000
0"
#985000
b101110 4
b100101 @
1"
#990000
0"
#995000
b101111 4
b100110 @
1"
#1000000
0"
#1005000
b110000 4
b100111 @
1"
#1010000
0"
#1015000
b110001 4
b10101111111001100100000010110011 7
b10110011101011111110011001000000 6
b101000 @
1"
#1020000
0"
#1025000
b110010 4
b101001 @
1"
#1030000
0"
#1035000
b110011 4
b101010 @
1"
#1040000
0"
#1045000
b110100 4
b101011 @
1"
#1050000
0"
#1055000
b110101 4
b1011010011100100001110000001010 7
b101100 @
1"
#1060000
0"
#1065000
b110110 4
b101101 @
1"
#1070000
0"
#1075000
b110111 4
b101110 @
1"
#1080000
0"
#1085000
b111000 4
b101111 @
1"
#1090000
0"
#1095000
b111001 4
b11111000110011011110101011001101 7
b11001101111110001100110111101010 6
b110000 @
1"
#1100000
0"
#1105000
b111010 4
b110001 @
1"
#1110000
0"
#1115000
b111011 4
b110010 @
1"
#1120000
0"
#1125000
b111100 4
b110011 @
1"
#1130000
0"
#1135000
b10 3
b1111 5
b110100 @
1"
#1140000
0"
#1145000
b0 3
1!
b110101 @
1"
#1150000
0"
#1155000
b0 4
0!
b1111 5
b0 #
b0 /
0$
b1110 ,
b100100111111000111100111001100101111110000100101111001111010010011011100011010110000100011110001101101011010001101111000110110 *
b1111 J
b1 I
b110110 @
1"
#1160000
0"
#1165000
b1111 5
1"
#1170000
0"
#1175000
1$
1"
#1180000
0"
#1185000
b1 3
b1000 4
1%
b0 ?
b11 )
1"
#1190000
0"
#1195000
b1001 4
b0 7
b0 6
b0 @
0%
1"
#1200000
0"
#1205000
b1010 4
b1 @
1"
#1210000
0"
#1215000
b1011 4
b10 @
1"
#1220000
0"
#1225000
b1100 4
b11 @
1"
#1230000
0"
#1235000
b1101 4
b1100010011000110110001101100011 7
b100 @
1"
#1240000
0"
#1245000
b1110 4
b101 @
1"
#1250000
0"
#1255000
b1111 4
b110 @
1"
#1260000
0"
#1265000
b10000 4
b111 @
1"
#1270000
0"
#1275000
b10001 4
b11111011111110111111101110101010 7
b10101010111110111111101111111011 6
b1000 @
1"
#1280000
0"
#1285000
b10010 4
b1001 @
1"
#1290000
0"
#1295000
b10011 4
b1010 @
1"
#1300000
0"
#1305000
b10100 4
b1011 @
1"
#1310000
0"
#1315000
b10101 4
b1101000011110000111110101100 7
b1100 @
1"
#1320000
0"
#1325000
b10110 4
b1101 @
1"
#1330000
0"
#1335000
b10111 4
b1110 @
1"
#1340000
0"
#1345000
b11000 4
b1111 @
1"
#1350000
0"
#1355000
b11001 4
b1110110011101101001000111010111 7
b11010111011101100111011010010001 6
b10000 @
1"
#1360000
0"
#1365000
b11010 4
b10001 @
1"
#1370000
0"
#1375000
b11011 4
b10010 @
1"
#1380000
0"
#1385000
b11100 4
b10011 @
1"
#1390000
0"
#1395000
b11101 4
b111100001110001000000100001110 7
b10100 @
1"
#1400000
0"
#1405000
b11110 4
b10101 @
1"
#1410000
0"
#1415000
b11111 4
b10110 @
1"
#1420000
0"
#1425000
b100000 4
b10111 @
1"
#1430000
0"
#1435000
b100001 4
b111000011001010101111101011 7
b11101011000001110000110010101011 6
b11000 @
1"
#1440000
0"
#1445000
b100010 4
b11001 @
1"
#1450000
0"
#1455000
b100011 4
b11010 @
1"
#1460000
0"
#1465000
b100100 4
b11011 @
1"
#1470000
0"
#1475000
b100101 4
b11001101111111100110001011101001 7
b11100 @
1"
#1480000
0"
#1485000
b100110 4
b11101 @
1"
#1490000
0"
#1495000
b100111 4
b11110 @
1"
#1500000
0"
#1505000
b101000 4
b11111 @
1"
#1510000
0"
#1515000
b101001 4
b10111011101010100001111010111101 7
b10111101101110111010101000011110 6
b100000 @
1"
#1520000
0"
#1525000
b101010 4
b100001 @
1"
#1530000
0"
#1535000
b101011 4
b100010 @
1"
#1540000
0"
#1545000
b101100 4
b100011 @
1"
#1550000
0"
#1555000
b101101 4
b10011000110011110001000100011001 7
b100100 @
1"
#1560000
0"
#1565000
b101110 4
b100101 @
1"
#1570000
0"
#1575000
b101111 4
b100110 @
1"
#1580000
0"
#1585000
b110000 4
b100111 @
1"
#1590000
0"
#1595000
b110001 4
b1110001011110010010111111101100 7
b11101100011100010111100100101111 6
b101000 @
1"
#1600000
0"
#1605000
b110010 4
b101001 @
1"
#1610000
0"
#1615000
b110011 4
b101010 @
1"
#1620000
0"
#1625000
b110100 4
b101011 @
1"
#1630000
0"
#1635000
b110101 4
b10001110101110010001101001100010 7
b101100 @
1"
#1640000
0"
#1645000
b110110 4
b101101 @
1"
#1650000
0"
#1655000
b110111 4
b101110 @
1"
#1660000
0"
#1665000
b111000 4
b101111 @
1"
#1670000
0"
#1675000
b111001 4
b100000110101000011101111001110 7
b11001110001000001101010000111011 6
b110000 @
1"
#1680000
0"
#1685000
b111010 4
b110001 @
1"
#1690000
0"
#1695000
b111011 4
b110010 @
1"
#1700000
0"
#1705000
b111100 4
b110011 @
1"
#1710000
0"
#1715000
b10 3
b1111 5
b110100 @
1"
#1720000
0"
#1725000
b0 3
1!
b110101 @
1"
#1730000
0"
#1735000
b0 4
0!
b1111 5
0$
b1111 9
b10110100110010101110010011011110010000001001011011001010111100100100000010001010111100001110000011000010110111001110011011010010110111101101110 8
b1111 T
b1 S
b1 R
b110110 @
1"
#1740000
0"
#1745000
b1111 5
1"
#1750000
0"
#1755000
1$
1"
#1760000
0"
#1765000
b1 3
b1000 4
1%
b1111111111111111111111111111111111111111111111111111111111111111111111111111111111111111111111111111111111111111111111111111111111111111111111111111111111111111111111111111111111111111111111111111111111111111111111111111111111111111111111111111111111111111 ?
b1111111111111111111111111111111111111111111111111111111111111111111111111111111111111111111111111111111111111111111111111111111111111111111111111111111111111111111111111111111111111111111111111111111111111111111111111111111111111111111111111111111111111111 #
b1111111111111111111111111111111111111111111111111111111111111111111111111111111111111111111111111111111111111111111111111111111111111111111111111111111111111111111111111111111111111111111111111111111111111111111111111111111111111111111111111111111111111111 /
b100 )
1"
#1770000
0"
#1775000
b1001 4
b11111111111111111111111111111111 7
b11111111111111111111111111111111 6
b0 @
0%
1"
#1780000
0"
#1785000
b1010 4
b1 @
1"
#1790000
0"
#1795000
b1011 4
b10 @
1"
#1800000
0"
#1805000
b1100 4
b11 @
1"
#1810000
0"
#1815000
b1101 4
b10111000101100001011000010110 7
b100 @
1"
#1820000
0"
#1825000
b1110 4
b101 @
1"
#1830000
0"
#1835000
b1111 4
b110 @
1"
#1840000
0"
#1845000
b10000 4
b111 @
1"
#1850000
0"
#1855000
b10001 4
b1000111010001110100011111110000 7
b11110000010001110100011101000111 6
b1000 @
1"
#1860000
0"
#1865000
b10010 4
b1001 @
1"
#1870000
0"
#1875000
b10011 4
b1010 @
1"
#1880000
0"
#1885000
b10100 4
b1011 @
1"
#1890000
0"
#1895000
b10101 4
b10100010101000001010000010001100 7
b1100 @
1"
#1900000
0"
#1905000
b10110 4
b1101 @
1"
#1910000
0"
#1915000
b10111 4
b1110 @
1"
#1920000
0"
#1925000
b11000 4
b1111 @
1"
#1930000
0"
#1935000
b11001 4
b11100000111000000110010000111010 7
b111010111000001110000001100100 6
b10000 @
1"
#1940000
0"
#1945000
b11010 4
b10001 @
1"
#1950000
0"
#1955000
b11011 4
b10010 @
1"
#1960000
0"
#1965000
b11100 4
b10011 @
1"
#1970000
0"
#1975000
b11101 4
b11100101111000010100001110000000 7
b10100 @
1"
#1980000
0"
#1985000
b11110 4
b10101 @
1"
#1990000
0"
#1995000
b11111 4
b10110 @
1"
#2000000
0"
#2005000
b100000 4
b10111 @
1"
#2010000
0"
#2015000
b100001 4
b11111000000110101100110111011001 7
b11011001111110000001101011001101 6
b11000 @
1"
#2020000
0"
#2025000
b100010 4
b11001 @
1"
#2030000
0"
#2035000
b100011 4
b11010 @
1"
#2040000
0"
#2045000
b100100 4
b11011 @
1"
#2050000
0"
#2055000
b100101 4
b10110110010111010100001011001010 7
b11100 @
1"
#2060000
0"
#2065000
b100110 4
b11101 @
1"
#2070000
0"
#2075000
b100111 4
b11110 @
1"
#2080000
0"
#2085000
b101000 4
b11111 @
1"
#2090000
0"
#2095000
b101001 4
b10110011110100111000101110110001 7
b10110001101100111101001110001011 6
b100000 @
1"
#2100000
0"
#2105000
b101010 4
b100001 @
1"
#2110000
0"
#2115000
b101011 4
b100010 @
1"
#2120000
0"
#2125000
b101100 4
b100011 @
1"
#2130000
0"
#2135000
b101101 4
b1101010011100000010101111011110 7
b100100 @
1"
#2140000
0"
#2145000
b101110 4
b100101 @
1"
#2150000
0"
#2155000
b101111 4
b100110 @
1"
#2160000
0"
#2165000
b110000 4
b100111 @
1"
#2170000
0"
#2175000
b110001 4
b10110101101100101101011110010 7
b11110010000101101011011001011010 6
b101000 @
1"
#2180000
0"
#2185000
b110010 4
b101001 @
1"
#2190000
0"
#2195000
b110011 4
b101010 @
1"
#2200000
0"
#2205000
b110100 4
b101011 @
1"
#2210000
0"
#2215000
b110101 4
b11000101111011100001111000000101 7
b101100 @
1"
#2220000
0"
#2225000
b110110 4
b101101 @
1"
#2230000
0"
#2235000
b110111 4
b101110 @
1"
#2240000
0"
#2245000
b111000 4
b101111 @
1"
#2250000
0"
#2255000
b111001 4
b11001000100100100000111110011100 7
b10011100110010001001001000001111 6
b110000 @
1"
#2260000
0"
#2265000
b111010 4
b110001 @
1"
#2270000
0"
#2275000
b111011 4
b110010 @
1"
#2280000
0"
#2285000
b111100 4
b110011 @
1"
#2290000
0"
#2295000
b10 3
b1111 5
b110100 @
1"
#2300000
0"
#2305000
b0 3
1!
b110101 @
1"
#2310000
0"
#2315000
b0 4
0!
b1111 5
b0 #
b0 /
0$
b1111 9
b1000001011011000110110000100000010011110110111001100101011100110010000001001011011001010111100100100000010001010111100001110000011000010110111001110011011010010110111101101110 8
b1111 (
b1110 '
b0 K
b110110 @
1"
#2320000
0"
#2325000
b1111 5
1"
#2330000
0"
#2335000
1$
1"
#2340000
0"
#2345000
b1 3
b1000 4
1%
b10010000111111011010101000100010000101101000110000100011010011000100110001100110001010001011100000001101110000011100110100010010100100000010010011100000100010001010011001111100110001110100000000100000101110111110101001100011101100010011100110110010001001 ?
b10010000111111011010101000100010000101101000110000100011010011000100110001100110001010001011100000001101110000011100110100010010100100000010010011100000100010001010011001111100110001110100000000100000101110111110101001100011101100010011100110110010001001 #
b10010000111111011010101000100010000101101000110000100011010011000100110001100110001010001011100000001101110000011100110100010010100100000010010011100000100010001010011001111100110001110100000000100000101110111110101001100011101100010011100110110010001001 /
b101 )
b10100100110000101101110011001000110111101101101001000000100101101100101011110010010000000110001001000000010100001010000011010010010000001100100011010010110011101101001011101000111001100101001 M
b10010000111111011010101000100010000101101000110000100011010011000100110001100110001010001011100000001101110000011100110100010010100100000010010011100000100010001010011001111100110001110100000000100000101110111110101001100011101100010011100110110010001001 L
1"
#2350000
0"
#2355000
b1001 4
b1001110011011001000100111101100 7
b11101100010011100110110010001001 6
b0 @
0%
1"
#2360000
0"
#2365000
b1010 4
b1 @
1"
#2370000
0"
#2375000
b1011 4
b10 @
1"
#2380000
0"
#2385000
b1100 4
b11 @
1"
#2390000
0"
#2395000
b1101 4
b10011111101001010011110011111111 7
b100 @
1"
#2400000
0"
#2405000
b1110 4
b101 @
1"
#2410000
0"
#2415000
b1111 4
b110 @
1"
#2420000
0"
#2425000
b10000 4
b111 @
1"
#2430000
0"
#2435000
b10001 4
b11110000011101001111010110110010 7
b10110010111100000111010011110101 6
b1000 @
1"
#2440000
0"
#2445000
b10010 4
b1001 @
1"
#2450000
0"
#2455000
b10011 4
b1010 @
1"
#2460000
0"
#2465000
b10100 4
b1011 @
1"
#2470000
0"
#2475000
b10101 4
b1000010000011001110110100000 7
b1100 @
1"
#2480000
0"
#2485000
b10110 4
b1101 @
1"
#2490000
0"
#2495000
b10111 4
b1110 @
1"
#2500000
0"
#2505000
b11000 4
b1111 @
1"
#2510000
0"
#2515000
b11001 4
b1010010000000111011100111110101 7
b11110101010100100000001110111001 6
b10000 @
1"
#2520000
0"
#2525000
b11010 4
b10001 @
1"
#2530000
0"
#2535000
b11011 4
b10010 @
1"
#2540000
0"
#2545000
b11100 4
b10011 @
1"
#2550000
0"
#2555000
b11101 4
b10100000100101010111110001100 7
b10100 @
1"
#2560000
0"
#2565000
b11110 4
b10101 @
1"
#2570000
0"
#2575000
b11111 4
b10110 @
1"
#2580000
0"
#2585000
b100000 4
b10111 @
1"
#2590000
0"
#2595000
b100001 4
b10101001111011110111010100011110 7
b11110101010011110111101110101 6
b11000 @
1"
#2600000
0"
#2605000
b100010 4
b11001 @
1"
#2610000
0"
#2615000
b100011 4
b11010 @
1"
#2620000
0"
#2625000
b100100 4
b11011 @
1"
#2630000
0"
#2635000
b100101 4
b11011000101011111110111000110110 7
b11100 @
1"
#2640000
0"
#2645000
b100110 4
b11101 @
1"
#2650000
0"
#2655000
b100111 4
b11110 @
1"
#2660000
0"
#2665000
b101000 4
b11111 @
1"
#2670000
0"
#2675000
b101001 4
b110111010001001000110010001101 7
b10001101001101110100010010001100 6
b100000 @
1"
#2680000
0"
#2685000
b101010 4
b100001 @
1"
#2690000
0"
#2695000
b101011 4
b100010 @
1"
#2700000
0"
#2705000
b101100 4
b100011 @
1"
#2710000
0"
#2715000
b101101 4
b10101101111100101100010100010 7
b100100 @
1"
#2720000
0"
#2725000
b101110 4
b100101 @
1"
#2730000
0"
#2735000
b101111 4
b100110 @
1"
#2740000
0"
#2745000
b110000 4
b100111 @
1"
#2750000
0"
#2755000
b110001 4
b1011110000111101100111111101011 7
b11101011010111100001111011001111 6
b101000 @
1"
#2760000
0"
#2765000
b110010 4
b101001 @
1"
#2770000
0"
#2775000
b110011 4
b101010 @
1"
#2780000
0"
#2785000
b110100 4
b101011 @
1"
#2790000
0"
#2795000
b110101 4
b1110000001100110001011101001001 7
b101100 @
1"
#2800000
0"
#2805000
b110110 4
b101101 @
1"
#2810000
0"
#2815000
b110111 4
b101110 @
1"
#2820000
0"
#2825000
b111000 4
b101111 @
1"
#2830000
0"
#2835000
b111001 4
b10010001111100111000001010100100 7
b10100100100100011111001110000010 6
b110000 @
1"
#2840000
0"
#2845000
b111010 4
b110001 @
1"
#2850000
0"
#2855000
b111011 4
b110010 @
1"
#2860000
0"
#2865000
b111100 4
b110011 @
1"
#2870000
0"
#2875000
b10 3
b1111 5
b110100 @
1"
#2880000
0"
#2885000
b0 3
1!
b110101 @
1"
#2890000
0"
#2895000
b0 4
0!
b1111 5
b0 #
b0 /
0$
b1111 (
b1110 '
b1 N
b110110 @
1"
#2900000
0"
#2905000
b1111 5
1"
#2910000
0"
#2915000
1$
1"
#2920000
0"
#2925000
b1 3
b1000 4
1%
b1101111010101101101111101110111111001010111111101011101010111110000100110011011100010011001101110001001100110111000100110011011111000000110111101100000011011110110000001101111011000000110111101100000011011110110000001101111011000000110111101100000011011110 ?
b1101111010101101101111101110111111001010111111101011101010111110000100110011011100010011001101110001001100110111000100110011011111000000110111101100000011011110110000001101111011000000110111101100000011011110110000001101111011000000110111101100000011011110 #
b1101111010101101101111101110111111001010111111101011101010111110000100110011011100010011001101110001001100110111000100110011011111000000110111101100000011011110110000001101111011000000110111101100000011011110110000001101111011000000110111101100000011011110 /
b110 )
b101001001100001011011100110010001101111011011010010000001001011011001010111100100100000001100100010000000101000010100000110000101110100011101000110010101110010011011100111001100101001 M
b1101111010101101101111101110111111001010111111101011101010111110000100110011011100010011001101110001001100110111000100110011011111000000110111101100000011011110110000001101111011000000110111101100000011011110110000001101111011000000110111101100000011011110 L
1"
#2930000
0"
#2935000
b1001 4
b11011110110000001101111011000000 7
b11000000110111101100000011011110 6
b0 @
0%
1"
#2940000
0"
#2945000
b1010 4
b1 @
1"
#2950000
0"
#2955000
b1011 4
b10 @
1"
#2960000
0"
#2965000
b1100 4
b11 @
1"
#2970000
0"
#2975000
b1101 4
b1000111010010001100111101011 7
b100 @
1"
#2980000
0"
#2985000
b1110 4
b101 @
1"
#2990000
0"
#2995000
b1111 4
b110 @
1"
#3000000
0"
#3005000
b10000 4
b111 @
1"
#3010000
0"
#3015000
b10001 4
b11110110101001110100100110000 7
b110000000111101101010011101001 6
b1000 @
1"
#3020000
0"
#3025000
b10010 4
b1001 @
1"
#3030000
0"
#3035000
b10011 4
b1010 @
1"
#3040000
0"
#3045000
b10100 4
b1011 @
1"
#3050000
0"
#3055000
b10101 4
b10101001100000011011011110001101 7
b1100 @
1"
#3060000
0"
#3065000
b10110 4
b1101 @
1"
#3070000
0"
#3075000
b10111 4
b1110 @
1"
#3080000
0"
#3085000
b11000 4
b1111 @
1"
#3090000
0"
#3095000
b11001 4
b1100101010010101110111010011 7
b11010011000011001010100101011101 6
b10000 @
1"
#3100000
0"
#3105000
b11010 4
b10001 @
1"
#3110000
0"
#3115000
b11011 4
b10010 @
1"
#3120000
0"
#3125000
b11100 4
b10011 @
1"
#3130000
0"
#3135000
b11101 4
b11111010110100110100110001100110 7
b10100 @
1"
#3140000
0"
#3145000
b11110 4
b10101 @
1"
#3150000
0"
#3155000
b11111 4
b10110 @
1"
#3160000
0"
#3165000
b100000 4
b10111 @
1"
#3170000
0"
#3175000
b100001 4
b1100110001010010011001100101101 7
b101101011001100010100100110011 6
b11000 @
1"
#3180000
0"
#3185000
b100010 4
b11001 @
1"
#3190000
0"
#3195000
b100011 4
b11010 @
1"
#3200000
0"
#3205000
b100100 4
b11011 @
1"
#3210000
0"
#3215000
b100101 4
b101000100100101101000011101111 7
b11100 @
1"
#3220000
0"
#3225000
b100110 4
b11101 @
1"
#3230000
0"
#3235000
b100111 4
b11110 @
1"
#3240000
0"
#3245000
b101000 4
b11111 @
1"
#3250000
0"
#3255000
b101001 4
b10010001101100000000000111110100 7
b11110100100100011011000000000001 6
b100000 @
1"
#3260000
0"
#3265000
b101010 4
b100001 @
1"
#3270000
0"
#3275000
b101011 4
b100010 @
1"
#3280000
0"
#3285000
b101100 4
b100011 @
1"
#3290000
0"
#3295000
b101101 4
b10011001000011100110010101010100 7
b100100 @
1"
#3300000
0"
#3305000
b101110 4
b100101 @
1"
#3310000
0"
#3315000
b101111 4
b100110 @
1"
#3320000
0"
#3325000
b110000 4
b100111 @
1"
#3330000
0"
#3335000
b110001 4
b10110101100110011100100111011110 7
b11011110101101011001100111001001 6
b101000 @
1"
#3340000
0"
#3345000
b110010 4
b101001 @
1"
#3350000
0"
#3355000
b110011 4
b101010 @
1"
#3360000
0"
#3365000
b110100 4
b101011 @
1"
#3370000
0"
#3375000
b110101 4
b1011100011011110110101010010000 7
b101100 @
1"
#3380000
0"
#3385000
b110110 4
b101101 @
1"
#3390000
0"
#3395000
b110111 4
b101110 @
1"
#3400000
0"
#3405000
b111000 4
b101111 @
1"
#3410000
0"
#3415000
b111001 4
b10100100101010110011110110011001 7
b10011001101001001010101100111101 6
b110000 @
1"
#3420000
0"
#3425000
b111010 4
b110001 @
1"
#3430000
0"
#3435000
b111011 4
b110010 @
1"
#3440000
0"
#3445000
b111100 4
b110011 @
1"
#3450000
0"
#3455000
b10 3
b1111 5
b110100 @
1"
#3460000
0"
#3465000
b0 3
1!
b110101 @
1"
#3470000
0"
#3475000
b0 4
0!
b1111 5
b0 #
b0 /
0$
b1111 (
b1110 '
b110110 @
1"
#3480000
0"
#3485000
b1111 5
1"
#3490000
0"
#3495000
1$
1"
